<?xml version="1.0" encoding="UTF-8" standalone="no"?>
<svg
   version="1.1"
   width="841px"
   height="371px"
   viewBox="-0.5 -0.5 841 371"
   id="svg86"
   sodipodi:docname="split.svg"
   inkscape:version="1.1.2 (0a00cf5339, 2022-02-04)"
   xmlns:inkscape="http://www.inkscape.org/namespaces/inkscape"
   xmlns:sodipodi="http://sodipodi.sourceforge.net/DTD/sodipodi-0.dtd"
   xmlns:xlink="http://www.w3.org/1999/xlink"
   xmlns="http://www.w3.org/2000/svg"
   xmlns:svg="http://www.w3.org/2000/svg"
   xmlns:xhtml="http://www.w3.org/1999/xhtml">
  <sodipodi:namedview
     id="namedview88"
     pagecolor="#ffffff"
     bordercolor="#666666"
     borderopacity="1.0"
     inkscape:pageshadow="2"
     inkscape:pageopacity="0.0"
     inkscape:pagecheckerboard="0"
     showgrid="false"
     inkscape:zoom="1.4209275"
     inkscape:cx="420.5"
     inkscape:cy="185.79414"
     inkscape:window-width="1920"
     inkscape:window-height="1001"
     inkscape:window-x="0"
     inkscape:window-y="0"
     inkscape:window-maximized="1"
     inkscape:current-layer="svg86" />
  <defs
     id="defs2" />
  <g
     id="g76">
    <path
       d="M 210 70 L 271.76 70"
       fill="none"
       stroke="#2b2b2b"
       stroke-width="2"
       stroke-miterlimit="10"
       pointer-events="stroke"
       id="path4" />
    <path
       d="M 277.76 70 L 269.76 74 L 271.76 70 L 269.76 66 Z"
       fill="#2b2b2b"
       stroke="#2b2b2b"
       stroke-width="2"
       stroke-miterlimit="10"
       pointer-events="all"
       id="path6" />
    <ellipse
       cx="100"
       cy="70"
       rx="100"
       ry="60"
       fill-opacity="0.8"
       fill="#dae8fc"
       stroke="#6c8ebf"
       stroke-opacity="0.8"
       pointer-events="all"
       id="ellipse8" />
    <ellipse
       cx="100"
       cy="70"
       rx="70"
       ry="30"
       fill-opacity="0.8"
       fill="#6b9ee6"
       stroke="#6c8ebf"
       stroke-opacity="0.8"
       pointer-events="all"
       id="ellipse10" />
    <ellipse
       cx="380"
       cy="270"
       rx="100"
       ry="60"
       fill-opacity="0.8"
       fill="#f8cecc"
       stroke="#b85450"
       stroke-opacity="0.8"
       transform="rotate(90,380,270)"
       pointer-events="all"
       id="ellipse12" />
    <ellipse
       cx="380"
       cy="270"
       rx="100"
       ry="60"
       fill-opacity="0.8"
       fill="#dae8fc"
       stroke="#6c8ebf"
       stroke-opacity="0.8"
       pointer-events="all"
       id="ellipse14" />
    <ellipse
       cx="100"
       cy="270"
       rx="100"
       ry="60"
       fill-opacity="0.8"
       fill="#f8cecc"
       stroke="#b85450"
       stroke-opacity="0.8"
       transform="rotate(90,100,270)"
       pointer-events="all"
       id="ellipse16" />
    <ellipse
       cx="100"
       cy="270"
       rx="70"
       ry="30"
       fill-opacity="0.8"
       fill="#d58985"
       stroke="#b85450"
       stroke-opacity="0.8"
       transform="rotate(90,100,270)"
       pointer-events="all"
       id="ellipse18" />
    <ellipse
       cx="380"
       cy="70"
       rx="70"
       ry="30"
       fill-opacity="0.8"
       fill="#d58985"
       stroke="#b85450"
       stroke-opacity="0.8"
       transform="rotate(90,380,70)"
       pointer-events="all"
       id="ellipse20" />
    <ellipse
       cx="620"
       cy="270"
       rx="60"
       ry="60"
       fill-opacity="0.8"
       fill="#e1d5e7"
       stroke="#9673a6"
       stroke-opacity="0.8"
       transform="rotate(90,620,270)"
       pointer-events="all"
       id="ellipse22" />
    <ellipse
       cx="620"
       cy="70"
       rx="20"
       ry="20"
       fill-opacity="0.8"
       fill="#b88dce"
       stroke="#9673a6"
       stroke-opacity="0.8"
       transform="rotate(90,620,70)"
       pointer-events="all"
       id="ellipse24" />
    <ellipse
       cx="780"
       cy="150"
       rx="60"
       ry="60"
       fill-opacity="0.8"
       fill="#e1d5e7"
       stroke="#9673a6"
       stroke-opacity="0.8"
       transform="rotate(90,780,150)"
       pointer-events="all"
       id="ellipse26" />
    <ellipse
       cx="780"
       cy="150"
       rx="20"
       ry="20"
       fill-opacity="0.8"
       fill="#b88dce"
       stroke="#9673a6"
       stroke-opacity="0.8"
       transform="rotate(90,780,150)"
       pointer-events="all"
       id="ellipse28" />
    <path
       d="M 200 270 L 210 270 L 261.76 270"
       fill="none"
       stroke="#2b2b2b"
       stroke-width="2"
       stroke-miterlimit="10"
       pointer-events="stroke"
       id="path30" />
    <path
       d="M 267.76 270 L 259.76 274 L 261.76 270 L 259.76 266 Z"
       fill="#2b2b2b"
       stroke="#2b2b2b"
       stroke-width="2"
       stroke-miterlimit="10"
       pointer-events="all"
       id="path32" />
    <path
       d="M 480 70 L 551.76 70"
       fill="none"
       stroke="#2b2b2b"
       stroke-width="2"
       stroke-miterlimit="10"
       pointer-events="stroke"
       id="path34" />
    <path
       d="M 557.76 70 L 549.76 74 L 551.76 70 L 549.76 66 Z"
       fill="#2b2b2b"
       stroke="#2b2b2b"
       stroke-width="2"
       stroke-miterlimit="10"
       pointer-events="all"
       id="path36" />
    <path
       d="M 490 270 L 541.76 270"
       fill="none"
       stroke="#2b2b2b"
       stroke-width="2"
       stroke-miterlimit="10"
       pointer-events="stroke"
       id="path38" />
    <path
       d="M 547.76 270 L 539.76 274 L 541.76 270 L 539.76 266 Z"
       fill="#2b2b2b"
       stroke="#2b2b2b"
       stroke-width="2"
       stroke-miterlimit="10"
       pointer-events="all"
       id="path40" />
    <path
       d="M 190 220 L 284.18 125.82"
       fill="none"
       stroke="#2b2b2b"
       stroke-width="2"
       stroke-miterlimit="10"
       pointer-events="stroke"
       id="path42" />
    <path
       d="M 288.42 121.58 L 285.59 130.07 L 284.18 125.82 L 279.93 124.41 Z"
       fill="#2b2b2b"
       stroke="#2b2b2b"
       stroke-width="2"
       stroke-miterlimit="10"
       pointer-events="all"
       id="path44" />
    <path
       d="M 190 120 L 284.18 214.18"
       fill="none"
       stroke="#2b2b2b"
       stroke-width="2"
       stroke-miterlimit="10"
       pointer-events="stroke"
       id="path46" />
    <path
       d="M 288.42 218.42 L 279.93 215.59 L 284.18 214.18 L 285.59 209.93 Z"
       fill="#2b2b2b"
       stroke="#2b2b2b"
       stroke-width="2"
       stroke-miterlimit="10"
       pointer-events="all"
       id="path48" />
    <path
       d="M 670 90 L 712.35 106.94"
       fill="none"
       stroke="#2b2b2b"
       stroke-width="2"
       stroke-miterlimit="10"
       pointer-events="stroke"
       id="path50" />
    <path
       d="M 717.92 109.17 L 709.01 109.91 L 712.35 106.94 L 711.98 102.48 Z"
       fill="#2b2b2b"
       stroke="#2b2b2b"
       stroke-width="2"
       stroke-miterlimit="10"
       pointer-events="all"
       id="path52" />
    <path
       d="M 680 230 L 713.41 204.94"
       fill="none"
       stroke="#2b2b2b"
       stroke-width="2"
       stroke-miterlimit="10"
       pointer-events="stroke"
       id="path54" />
    <path
       d="M 718.21 201.34 L 714.21 209.34 L 713.41 204.94 L 709.41 202.94 Z"
       fill="#2b2b2b"
       stroke="#2b2b2b"
       stroke-width="2"
       stroke-miterlimit="10"
       pointer-events="all"
       id="path56" />
    <ellipse
       cx="380"
       cy="70"
       rx="70"
       ry="30"
       fill-opacity="0.8"
       fill="#6b9ee6"
       stroke="#6c8ebf"
       stroke-opacity="0.8"
       pointer-events="all"
       id="ellipse58" />
    <rect
       x="440"
       y="0"
       width="40"
       height="30"
       fill="none"
       stroke="none"
       pointer-events="all"
       id="rect60" />
    <g
       transform="translate(-0.5 -0.5)"
       id="g66">
      <switch
         id="switch64">
        <foreignObject
           pointer-events="none"
           width="100%"
           height="100%"
           requiredFeatures="http://www.w3.org/TR/SVG11/feature#Extensibility"
           style="overflow: visible; text-align: left;">
          <xhtml:div
             style="display: flex; align-items: unsafe center; justify-content: unsafe center; width: 1px; height: 1px; padding-top: 15px; margin-left: 460px;">
            <xhtml:div
               data-drawio-colors="color: rgb(0, 0, 0); "
               style="box-sizing: border-box; font-size: 0px; text-align: center;">
              <xhtml:div
                 style="display: inline-block; font-size: 16px; font-family: Helvetica; color: rgb(0, 0, 0); line-height: 1.2; pointer-events: all; font-weight: bold; white-space: nowrap;">KF</xhtml:div>
            </xhtml:div>
          </xhtml:div>
        </foreignObject>
        <text
           x="460"
           y="20"
           fill="rgb(0, 0, 0)"
           font-family="Helvetica"
           font-size="16px"
           text-anchor="middle"
           font-weight="bold"
           id="text62">KF</text>
      </switch>
    </g>
    <rect
       x="435"
       y="160"
       width="50"
       height="30"
       fill="none"
       stroke="none"
       pointer-events="all"
       id="rect68" />
    <g
       transform="translate(-0.5 -0.5)"
       id="g74">
      <switch
         id="switch72">
        <foreignObject
           pointer-events="none"
           width="100%"
           height="100%"
           requiredFeatures="http://www.w3.org/TR/SVG11/feature#Extensibility"
           style="overflow: visible; text-align: left;">
          <xhtml:div
             style="display: flex; align-items: unsafe center; justify-content: unsafe center; width: 1px; height: 1px; padding-top: 175px; margin-left: 460px;">
            <xhtml:div
               data-drawio-colors="color: rgb(0, 0, 0); "
               style="box-sizing: border-box; font-size: 0px; text-align: center;">
              <xhtml:div
                 style="display: inline-block; font-size: 16px; font-family: Helvetica; color: rgb(0, 0, 0); line-height: 1.2; pointer-events: all; font-weight: bold; white-space: nowrap;">CIF</xhtml:div>
            </xhtml:div>
          </xhtml:div>
        </foreignObject>
        <text
           x="460"
           y="180"
           fill="rgb(0, 0, 0)"
           font-family="Helvetica"
           font-size="16px"
           text-anchor="middle"
           font-weight="bold"
           id="text70">CIF</text>
      </switch>
    </g>
  </g>
  <switch
     id="switch84">
    <g
       requiredFeatures="http://www.w3.org/TR/SVG11/feature#Extensibility"
       id="g78" />
    <a
       transform="translate(0,-5)"
       xlink:href="https://www.drawio.com/doc/faq/svg-export-text-problems"
       target="_blank"
       id="a82">
      <text
         text-anchor="middle"
         font-size="10px"
         x="50%"
         y="100%"
         id="text80">Text is not SVG - cannot display</text>
    </a>
  </switch>
  <text
     xml:space="preserve"
     style="font-style:normal;font-weight:normal;font-size:40px;line-height:1.25;font-family:sans-serif;fill:#000000;fill-opacity:1;stroke:none"
     x="818.34644"
     y="32.667297"
     id="text840"><tspan
       sodipodi:role="line"
       id="tspan838"
       x="818.34644"
       y="32.667297">*</tspan></text>
</svg>
